<svg width="48" height="48" viewBox="0 0 48 48" fill="none" xmlns="http://www.w3.org/2000/svg">
<path fill-rule="evenodd" clip-rule="evenodd" d="M23.9882 47.9764C37.2365 47.9764 47.9764 37.2365 47.9764 23.9882C47.9764 10.7399 37.2365 0 23.9882 0C10.7399 0 0 10.7399 0 23.9882C0 37.2365 10.7399 47.9764 23.9882 47.9764Z" fill="#D5D1FB"/>
<path d="M30.5455 21.6265V31.0553H17.4546V21.6265" stroke="#AAAAAA" stroke-width="2" stroke-linecap="round" stroke-linejoin="round"/>
<rect x="16" y="18" width="16" height="3.62648" stroke="#AAAAAA" stroke-width="2" stroke-linecap="round" stroke-linejoin="round"/>
<path d="M22.5454 24.5277H25.4545" stroke="#AAAAAA" stroke-width="2" stroke-linecap="round" stroke-linejoin="round"/>
</svg>
